[
  {
    "COMPANY_NEWS": {
      "pageName": "Company News",
      "visibility": "public",
      "autoSubscription": "everyone"
    }
  },
  {
    "ABOUT_COYO": {
      "pageName": "About Coyo",
      "visibility": "public",
      "autoSubscription": "off"
    }
  },
  {
    "MARKETING_AND_SALES": {
      "pageName": "Marketing & Sales",
      "visibility": "public",
      "autoSubscription": "off"
    }
  }
]