{
  "$schema": "../node_modules/@angular-devkit/schematics/collection-schema.json",
  "schematics": {
    "widget": {
      "description": "Coyo Widget Schematic",
      "factory": "./widget/index#widget",
      "schema": "./widget/schema.json"
    }
  }
}
