<?xml version="1.0" encoding="UTF-8"?>
<svg width="320px" height="180px" viewBox="0 0 320 180" version="1.1" xmlns="http://www.w3.org/2000/svg" xmlns:xlink="http://www.w3.org/1999/xlink">
    <!-- Generator: Sketch 52.5 (67469) - http://www.bohemiancoding.com/sketch -->
    <title>gsuite-placeholder</title>
    <desc>Created with Sketch.</desc>
    <defs>
        <path d="M173.884766,98.2402344 C173.494139,98.2402344 173.113283,98.3183586 172.742188,98.4746094 L171.394531,97.1269531 C172.195317,96.8339829 173.015621,96.6875 173.855469,96.6875 C175.398445,96.6875 176.794916,97.122066 178.044922,97.9912109 C179.294928,98.8603559 180.193357,99.9882743 180.740234,101.375 C180.291013,102.546881 179.57813,103.533199 178.601562,104.333984 L176.785156,102.517578 C176.921876,102.146483 176.990234,101.765627 176.990234,101.375 C176.990234,100.515621 176.687503,99.7783234 176.082031,99.1630859 C175.476559,98.5478485 174.744145,98.2402344 173.884766,98.2402344 Z M167.615234,96.5410156 L168.40625,95.75 L179.509766,106.824219 L178.71875,107.615234 L176.873047,105.798828 L176.609375,105.535156 C175.730464,105.886721 174.82227,106.0625 173.884766,106.0625 C172.341789,106.0625 170.945319,105.627934 169.695312,104.758789 C168.445306,103.889644 167.546878,102.761726 167,101.375 C167.488284,100.124994 168.269526,99.0898479 169.34375,98.2695312 L167.615234,96.5410156 Z M171.072266,99.9980469 C170.857421,100.447268 170.75,100.906248 170.75,101.375 C170.75,102.234379 171.057614,102.971677 171.672852,103.586914 C172.288089,104.202152 173.025386,104.509766 173.884766,104.509766 C174.353518,104.509766 174.812498,104.392579 175.261719,104.158203 L174.294922,103.191406 C174.138671,103.230469 174.001954,103.25 173.884766,103.25 C173.357419,103.25 172.913088,103.069338 172.551758,102.708008 C172.190428,102.346678 172.009766,101.902346 172.009766,101.375 C172.009766,101.238281 172.019531,101.101563 172.039062,100.964844 L171.072266,99.9980469 Z M173.767578,99.5 L173.884766,99.5 C174.392581,99.5 174.832029,99.685545 175.203125,100.056641 C175.574221,100.427736 175.759766,100.867185 175.759766,101.375 L175.730469,101.492188 L173.767578,99.5 Z" id="path-1"></path>
    </defs>
    <g id="Page-1" stroke="none" stroke-width="1" fill="none" fill-rule="evenodd">
        <g id="gsuite-placeholder">
            <rect id="Rectangle" stroke="#DADADA" fill="#FFFFFF" x="0.5" y="0.5" width="319" height="179"></rect>
            <g id="google-drive" transform="translate(146.000000, 78.000000)">
                <polygon id="Path" fill="#1DA362" points="8.46652268 1.93520518 12.8812095 9.67602592 4.41468683 24.4924406 1.50990331e-14 16.7516199"></polygon>
                <polygon id="Path" fill="#4788F4" points="11.0669546 16.7516199 28 16.7516199 23.5853132 24.4924406 6.65226782 24.4924406"></polygon>
                <polygon id="Path" fill="#FFD14D" points="27.2742981 15.4816415 18.4449244 15.4816415 9.55507559 1.77635684e-15 18.3844492 1.77635684e-15"></polygon>
            </g>
            <rect id="Rectangle" fill="#FFFFFF" x="163" y="92" width="15" height="15" rx="3"></rect>
            <g id="">
                <use fill="#000000" xlink:href="#path-1"></use>
                <use fill="#999999" xlink:href="#path-1"></use>
            </g>
        </g>
    </g>
</svg>